<?xml version="1.0"?>
<svg xmlns:rdf="http://www.w3.org/1999/02/22-rdf-syntax-ns#" xmlns="http://www.w3.org/2000/svg" xmlns:cc="http://web.resource.org/cc/" xmlns:xlink="http://www.w3.org/1999/xlink" xmlns:dc="http://purl.org/dc/elements/1.1/" xmlns:svg="http://www.w3.org/2000/svg" id="svg2" viewBox="0 0 86.387 79.54" version="1.0">
  <defs id="defs4">
    <linearGradient id="linearGradient9474" x1="225.28" gradientUnits="userSpaceOnUse" y1="451.83" gradientTransform="matrix(.35056 0 0 .37016 22.985 226.28)" x2="131.99" y2="322.88">
      <stop id="stop2192" stop-color="#acbbff" offset="0"/>
      <stop id="stop2194" stop-color="#acbbff" stop-opacity="0" offset="1"/>
    </linearGradient>
    <linearGradient id="linearGradient9477" x1="460.01" gradientUnits="userSpaceOnUse" y1="585.22" gradientTransform="matrix(.21495 0 0 .23697 30.872 266.02)" x2="152.87" y2="332.36">
      <stop id="stop3991" offset="0"/>
      <stop id="stop3993" stop-opacity="0" offset="1"/>
    </linearGradient>
  </defs>
  <g id="layer1" transform="translate(-95.187 -327.46)">
    <rect id="rect3108" opacity=".74621" fill-rule="evenodd" transform="matrix(.99815 -.060834 .10487 .99449 0 0)" height="72.446" width="74.619" y="340.72" x="63.882" fill="url(#linearGradient9477)"/>
    <rect id="rect1307" fill-rule="evenodd" transform="matrix(.99815 -.060834 .10487 .99449 0 0)" height="72.446" width="74.619" stroke="#000" y="337.67" x="60.044" stroke-width=".31597" fill="url(#linearGradient9474)"/>
    <g id="g4884" stroke="#000" stroke-opacity=".59231" transform="matrix(.22191 -.013525 .024852 .23566 62.011 262.81)">
      <path id="path4870" d="m186.48 304.65v298.06" stroke-opacity=".59231" stroke="#000" stroke-width="1.1387px" fill="none"/>
      <use id="use4872" xlink:href="#path4870" transform="translate(-48.941 -.000048333)" height="1052.3622" width="744.09448" y="0" x="0"/>
      <use id="use4874" xlink:href="#path4870" transform="translate(146.82 -.000048333)" height="1052.3622" width="744.09448" y="0" x="0"/>
      <use id="use4876" xlink:href="#path4870" transform="translate(48.941 -.000048333)" height="1052.3622" width="744.09448" y="0" x="0"/>
      <use id="use4878" xlink:href="#path4870" transform="translate(97.882 -.000048333)" height="1052.3622" width="744.09448" y="0" x="0"/>
      <use id="use4880" xlink:href="#path4870" transform="translate(195.76 -.000048333)" height="1052.3622" width="744.09448" y="0" x="0"/>
      <use id="use4882" xlink:href="#path4870" transform="translate(244.7 -.000048333)" height="1052.3622" width="744.09448" y="0" x="0"/>
    </g>
    <g id="g4893" stroke-opacity=".59231" transform="matrix(.025703 .24374 -.21455 .013076 227.24 291.23)">
      <path id="path4895" stroke="#000" stroke-width="1.1387px" fill="none" d="m186.48 304.65v298.06"/>
      <use id="use4897" xlink:href="#path4870" transform="translate(-48.941 -.000048333)" height="1052.3622" width="744.09448" stroke="#000000" y="0" x="0"/>
      <use id="use4899" xlink:href="#path4870" transform="translate(146.82 -.000048333)" height="1052.3622" width="744.09448" stroke="#000000" y="0" x="0"/>
      <use id="use4901" xlink:href="#path4870" transform="translate(48.941 -.000048333)" height="1052.3622" width="744.09448" stroke="#000000" y="0" x="0"/>
      <use id="use4903" xlink:href="#path4870" transform="translate(97.882 -.000048333)" height="1052.3622" width="744.09448" stroke="#000000" y="0" x="0"/>
      <use id="use4905" xlink:href="#path4870" transform="translate(195.76 -.000048333)" height="1052.3622" width="744.09448" stroke="#000000" y="0" x="0"/>
      <use id="use4907" xlink:href="#path4870" transform="translate(244.7 -.000048333)" height="1052.3622" width="744.09448" stroke="#000000" y="0" x="0"/>
    </g>
    <path id="path3079" stroke="#f90000" stroke-width="1.9626" fill="none" d="m101.87 376.48c15.88-21.97 15.54-22.29 15.54-22.29l11.2-2.04 15.63-9.76 8.07 23.9 11.93-15.63 6.63 13.15"/>
  </g>
  <metadata>
    <rdf:RDF>
      <cc:Work>
        <dc:format>image/svg+xml</dc:format>
        <dc:type rdf:resource="http://purl.org/dc/dcmitype/StillImage"/>
        <cc:license rdf:resource="http://creativecommons.org/licenses/publicdomain/"/>
        <dc:publisher>
          <cc:Agent rdf:about="http://openclipart.org/">
            <dc:title>Openclipart</dc:title>
          </cc:Agent>
        </dc:publisher>
        <dc:title>graph</dc:title>
        <dc:date>2009-03-05T13:36:40</dc:date>
        <dc:description>icon for statistics, plot or graph</dc:description>
        <dc:source>http://openclipart.org/detail/21839/graph-by-ax11</dc:source>
        <dc:creator>
          <cc:Agent>
            <dc:title>AX11</dc:title>
          </cc:Agent>
        </dc:creator>
        <dc:subject>
          <rdf:Bag>
            <rdf:li>cartoon</rdf:li>
            <rdf:li>clip art</rdf:li>
            <rdf:li>clipart</rdf:li>
            <rdf:li>color</rdf:li>
            <rdf:li>gtaph</rdf:li>
            <rdf:li>icon</rdf:li>
            <rdf:li>image</rdf:li>
            <rdf:li>media</rdf:li>
            <rdf:li>plot</rdf:li>
            <rdf:li>png</rdf:li>
            <rdf:li>public domain</rdf:li>
            <rdf:li>statistics</rdf:li>
            <rdf:li>svg</rdf:li>
            <rdf:li>symbol</rdf:li>
          </rdf:Bag>
        </dc:subject>
      </cc:Work>
      <cc:License rdf:about="http://creativecommons.org/licenses/publicdomain/">
        <cc:permits rdf:resource="http://creativecommons.org/ns#Reproduction"/>
        <cc:permits rdf:resource="http://creativecommons.org/ns#Distribution"/>
        <cc:permits rdf:resource="http://creativecommons.org/ns#DerivativeWorks"/>
      </cc:License>
    </rdf:RDF>
  </metadata>
</svg>
